Hardware/Simulation/output/wave.vcd
$date
	Sun Oct 27 16:05:47 2024
$end
$version
	Icarus Verilog
$end
$timescale
	1ps
$end
$scope module L1Dcache $end
$var wire 1 ! cache_reset $end
$var wire 1 " clk $end
$var wire 32 # l2_addr [31:0] $end
$var wire 32 $ l2_data [31:0] $end
$var wire 1 % l2_done $end
$var wire 32 & l2_q [31:0] $end
$var wire 1 ' l2_start $end
$var wire 1 ( l2_we $end
$var wire 1 ) reset $end
$var wire 32 * sdc_addr [31:0] $end
$var wire 32 + sdc_data [31:0] $end
$var wire 1 , sdc_done $end
$var wire 32 - sdc_q [31:0] $end
$var wire 1 . sdc_start $end
$var wire 1 / sdc_we $end
$upscope $end
$scope module L1Icache $end
$var wire 1 0 cache_reset $end
$var wire 1 1 clk $end
$var wire 32 2 l2_addr [31:0] $end
$var wire 32 3 l2_data [31:0] $end
$var wire 1 4 l2_done $end
$var wire 32 5 l2_q [31:0] $end
$var wire 1 6 l2_start $end
$var wire 1 7 l2_we $end
$var wire 1 8 reset $end
$var wire 32 9 sdc_addr [31:0] $end
$var wire 32 : sdc_data [31:0] $end
$var wire 1 ; sdc_done $end
$var wire 32 < sdc_q [31:0] $end
$var wire 1 = sdc_start $end
$var wire 1 > sdc_we $end
$upscope $end
$scope module SRAM $end
$var wire 12 ? cpu_addr [11:0] $end
$var wire 1 @ cpu_clk $end
$var wire 32 A cpu_d [31:0] $end
$var wire 1 B cpu_we $end
$var parameter 32 C ADDR_BITS $end
$var parameter 448 D LIST $end
$var parameter 32 E WIDTH $end
$var parameter 32 F WORDS $end
$var reg 32 G cpu_q [31:0] $end
$upscope $end
$scope module tb_cpu $end
$var wire 27 H bus_d_sdram_addr [26:0] $end
$var wire 32 I bus_d_sdram_data [31:0] $end
$var wire 1 J bus_d_sdram_done $end
$var wire 32 K bus_d_sdram_q [31:0] $end
$var wire 1 L bus_d_sdram_ready $end
$var wire 1 M bus_d_sdram_start $end
$var wire 1 N bus_d_sdram_we $end
$var wire 27 O bus_i_sdram_addr [26:0] $end
$var wire 32 P bus_i_sdram_data [31:0] $end
$var wire 1 Q bus_i_sdram_done $end
$var wire 32 R bus_i_sdram_q [31:0] $end
$var wire 1 S bus_i_sdram_ready $end
$var wire 1 T bus_i_sdram_start $end
$var wire 1 U bus_i_sdram_we $end
$var wire 32 V bus_i_rom_q [31:0] $end
$var wire 9 W bus_i_rom_addr [8:0] $end
$var reg 1 X clk $end
$var reg 1 Y clk100 $end
$var reg 1 Z reset $end
$scope module cpu $end
$var wire 27 [ bus_d_sdram_addr [26:0] $end
$var wire 32 \ bus_d_sdram_data [31:0] $end
$var wire 1 J bus_d_sdram_done $end
$var wire 32 ] bus_d_sdram_q [31:0] $end
$var wire 1 L bus_d_sdram_ready $end
$var wire 1 M bus_d_sdram_start $end
$var wire 1 N bus_d_sdram_we $end
$var wire 27 ^ bus_i_sdram_addr [26:0] $end
$var wire 32 _ bus_i_sdram_data [31:0] $end
$var wire 1 Q bus_i_sdram_done $end
$var wire 32 ` bus_i_sdram_q [31:0] $end
$var wire 1 S bus_i_sdram_ready $end
$var wire 1 T bus_i_sdram_start $end
$var wire 1 U bus_i_sdram_we $end
$var wire 1 X clk $end
$var wire 1 Y clk100 $end
$var wire 32 a dataMem_q_WB [31:0] $end
$var wire 1 b datamem_busy_MEM $end
$var wire 1 c instr_hit_FE $end
$var wire 1 d int1 $end
$var wire 1 e int10 $end
$var wire 1 f int2 $end
$var wire 1 g int3 $end
$var wire 1 h int4 $end
$var wire 1 i int5 $end
$var wire 1 j int6 $end
$var wire 1 k int7 $end
$var wire 1 l int8 $end
$var wire 1 m int9 $end
$var wire 1 n interruptValid $end
$var wire 1 Z reset $end
$var wire 32 o stack_q_WB [31:0] $end
$var wire 1 p sig_MEM $end
$var wire 1 q sig_DE $end
$var wire 1 r reti_MEM $end
$var wire 1 s reti_EX $end
$var wire 1 t reti_DE $end
$var wire 1 u push_MEM $end
$var wire 1 v push_EX $end
$var wire 1 w push_DE $end
$var wire 1 x pop_WB $end
$var wire 1 y pop_MEM $end
$var wire 1 z pop_EX $end
$var wire 1 { pop_DE $end
$var wire 32 | pc_FE_wire [31:0] $end
$var wire 32 } pc4_WB [31:0] $end
$var wire 32 ~ pc4_MEM [31:0] $end
$var wire 32 !" pc4_FE [31:0] $end
$var wire 32 "" pc4_EX [31:0] $end
$var wire 32 #" pc4_DE [31:0] $end
$var wire 1 $" oe_MEM $end
$var wire 1 %" oe_DE $end
$var wire 1 &" mem_write_MEM $end
$var wire 1 '" mem_write_EX $end
$var wire 1 (" mem_write_DE $end
$var wire 1 )" mem_read_WB $end
$var wire 1 *" mem_read_MEM $end
$var wire 1 +" mem_read_EX $end
$var wire 1 ," mem_read_DE $end
$var wire 1 -" jumpr_MEM $end
$var wire 1 ." jumpr_EX $end
$var wire 1 /" jumpr_DE $end
$var wire 1 0" jumpc_MEM $end
$var wire 1 1" jumpc_EX $end
$var wire 1 2" jumpc_DE $end
$var wire 8 3" intID [7:0] $end
$var wire 1 4" intCPU $end
$var wire 32 5" instr_WB [31:0] $end
$var wire 32 6" instr_MEM [31:0] $end
$var wire 32 7" instr_EX [31:0] $end
$var wire 32 8" instr_DE [31:0] $end
$var wire 4 9" instrOP_DE [3:0] $end
$var wire 1 :" he_DE $end
$var wire 1 ;" halt_MEM $end
$var wire 1 <" halt_EX $end
$var wire 1 =" halt_DE $end
$var wire 1 >" getPC_EX $end
$var wire 1 ?" getPC_DE $end
$var wire 1 @" getIntID_EX $end
$var wire 1 A" getIntID_DE $end
$var wire 32 B" execute_result_EX [31:0] $end
$var wire 1 C" dreg_we_WB $end
$var wire 1 D" dreg_we_MEM $end
$var wire 1 E" dreg_we_EX $end
$var wire 1 F" dreg_we_DE $end
$var wire 4 G" dreg_WB [3:0] $end
$var wire 4 H" dreg_MEM [3:0] $end
$var wire 4 I" dreg_EX [3:0] $end
$var wire 32 J" data_b_MEM [31:0] $end
$var wire 32 K" data_b_EX [31:0] $end
$var wire 32 L" data_a_MEM [31:0] $end
$var wire 32 M" data_a_EX [31:0] $end
$var wire 32 N" dataMem_addr_MEM [31:0] $end
$var wire 27 O" const27_MEM [26:0] $end
$var wire 32 P" const16_MEM [31:0] $end
$var wire 1 Q" clearCache_MEM $end
$var wire 1 R" clearCache_EX $end
$var wire 1 S" clearCache_DE $end
$var wire 32 T" bus_i_rom_q [31:0] $end
$var wire 9 U" bus_i_rom_addr [8:0] $end
$var wire 4 V" breg_EX [3:0] $end
$var wire 4 W" breg_DE [3:0] $end
$var wire 1 X" branch_MEM $end
$var wire 1 Y" branch_EX $end
$var wire 1 Z" branch_DE $end
$var wire 3 [" branchOP_MEM [2:0] $end
$var wire 4 \" areg_EX [3:0] $end
$var wire 4 ]" areg_DE [3:0] $end
$var wire 1 ^" alu_use_const_EX $end
$var wire 1 _" alu_use_const_DE $end
$var wire 32 `" alu_result_WB [31:0] $end
$var wire 32 a" alu_result_MEM [31:0] $end
$var wire 32 b" alu_result_EX [31:0] $end
$var wire 32 c" alu_input_b_EX [31:0] $end
$var wire 32 d" alu_const16u_EX [31:0] $end
$var wire 32 e" alu_const16_EX [31:0] $end
$var wire 4 f" aluOP_EX [3:0] $end
$var wire 32 g" PC_backup_current [31:0] $end
$var parameter 3 h" BRANCH_OP_BEQ $end
$var parameter 3 i" BRANCH_OP_BGE $end
$var parameter 3 j" BRANCH_OP_BGT $end
$var parameter 3 k" BRANCH_OP_BLE $end
$var parameter 3 l" BRANCH_OP_BLT $end
$var parameter 3 m" BRANCH_OP_BNE $end
$var parameter 3 n" BRANCH_OP_U1 $end
$var parameter 3 o" BRANCH_OP_U2 $end
$var parameter 27 p" InterruptJumpAddr $end
$var parameter 1 q" PCincrease $end
$var parameter 27 r" PCinterruptValidFrom $end
$var parameter 27 s" PCstart $end
$var reg 1 t" branch_passed_MEM $end
$var reg 32 u" data_d_WB [31:0] $end
$var reg 1 v" flush_DE $end
$var reg 1 w" flush_EX $end
$var reg 1 x" flush_FE $end
$var reg 1 y" flush_MEM $end
$var reg 1 z" flush_WB $end
$var reg 2 {" forward_a [1:0] $end
$var reg 2 |" forward_b [1:0] $end
$var reg 32 }" fw_data_a_EX [31:0] $end
$var reg 32 ~" fw_data_b_EX [31:0] $end
$var reg 1 !# intDisabled $end
$var reg 32 "# jump_addr_MEM [31:0] $end
$var reg 32 ## pc_FE [31:0] $end
$var reg 32 $# pc_FE_backup [31:0] $end
$var reg 32 %# pc_FE_prev [31:0] $end
$var reg 1 &# stall_DE $end
$var reg 1 '# stall_EX $end
$var reg 1 (# stall_FE $end
$var reg 1 )# stall_MEM $end
$var reg 1 *# stall_WB $end
$scope module alu $end
$var wire 32 +# a [31:0] $end
$var wire 32 ,# b [31:0] $end
$var wire 4 -# opcode [3:0] $end
$var parameter 4 .# OP_ADD $end
$var parameter 4 /# OP_AND $end
$var parameter 4 0# OP_FPMULTS $end
$var parameter 4 1# OP_LOAD $end
$var parameter 4 2# OP_LOADHI $end
$var parameter 4 3# OP_MULTS $end
$var parameter 4 4# OP_MULTU $end
$var parameter 4 5# OP_NOTA $end
$var parameter 4 6# OP_OR $end
$var parameter 4 7# OP_SHIFTL $end
$var parameter 4 8# OP_SHIFTR $end
$var parameter 4 9# OP_SHIFTRS $end
$var parameter 4 :# OP_SLT $end
$var parameter 4 ;# OP_SLTU $end
$var parameter 4 <# OP_SUB $end
$var parameter 4 =# OP_XOR $end
$var reg 64 ># ab [63:0] $end
$var reg 32 ?# y [31:0] $end
$upscope $end
$scope module controlUnit $end
$var wire 4 @# instrOP [3:0] $end
$var wire 1 :" he $end
$var parameter 4 A# OP_ARITH $end
$var parameter 4 B# OP_ARITHC $end
$var parameter 4 C# OP_BRANCH $end
$var parameter 4 D# OP_CCACHE $end
$var parameter 4 E# OP_HALT $end
$var parameter 4 F# OP_INTID $end
$var parameter 4 G# OP_JUMP $end
$var parameter 4 H# OP_JUMPR $end
$var parameter 4 I# OP_POP $end
$var parameter 4 J# OP_PUSH $end
$var parameter 4 K# OP_READ $end
$var parameter 4 L# OP_RETI $end
$var parameter 4 M# OP_SAVPC $end
$var parameter 4 N# OP_UNDEF2 $end
$var parameter 4 O# OP_UNDEF3 $end
$var parameter 4 P# OP_WRITE $end
$var reg 1 _" alu_use_const $end
$var reg 1 Z" branch $end
$var reg 1 S" clearCache $end
$var reg 1 F" dreg_we $end
$var reg 1 A" getIntID $end
$var reg 1 ?" getPC $end
$var reg 1 =" halt $end
$var reg 1 2" jumpc $end
$var reg 1 /" jumpr $end
$var reg 1 ," mem_read $end
$var reg 1 (" mem_write $end
$var reg 1 { pop $end
$var reg 1 w push $end
$var reg 1 t reti $end
$upscope $end
$scope module dataMem $end
$var wire 32 Q# addr [31:0] $end
$var wire 27 R# bus_l1d_addr [26:0] $end
$var wire 32 S# bus_l1d_data [31:0] $end
$var wire 1 T# bus_l1d_done $end
$var wire 32 U# bus_l1d_q [31:0] $end
$var wire 1 V# bus_l1d_ready $end
$var wire 1 W# bus_l1d_start $end
$var wire 1 X# bus_l1d_we $end
$var wire 1 b busy $end
$var wire 1 y" clear $end
$var wire 1 X clk $end
$var wire 1 Y clk100 $end
$var wire 32 Y# data [31:0] $end
$var wire 1 )# hold $end
$var wire 32 Z# q [31:0] $end
$var wire 1 *" re $end
$var wire 1 Z reset $end
$var wire 1 &" we $end
$upscope $end
$scope module instrDec_DE $end
$var wire 1 q sig $end
$var wire 1 %" oe $end
$var wire 4 [# instrOP [3:0] $end
$var wire 32 \# instr [31:0] $end
$var wire 1 :" he $end
$var wire 4 ]# dreg [3:0] $end
$var wire 32 ^# constAluu [31:0] $end
$var wire 32 _# constAlu [31:0] $end
$var wire 27 `# const27 [26:0] $end
$var wire 16 a# const16u [15:0] $end
$var wire 32 b# const16 [31:0] $end
$var wire 4 c# breg [3:0] $end
$var wire 3 d# branchOP [2:0] $end
$var wire 4 e# areg [3:0] $end
$var wire 4 f# aluOP [3:0] $end
$upscope $end
$scope module instrDec_EX $end
$var wire 1 g# sig $end
$var wire 1 h# oe $end
$var wire 4 i# instrOP [3:0] $end
$var wire 32 j# instr [31:0] $end
$var wire 1 k# he $end
$var wire 4 l# dreg [3:0] $end
$var wire 32 m# constAluu [31:0] $end
$var wire 32 n# constAlu [31:0] $end
$var wire 27 o# const27 [26:0] $end
$var wire 16 p# const16u [15:0] $end
$var wire 32 q# const16 [31:0] $end
$var wire 4 r# breg [3:0] $end
$var wire 3 s# branchOP [2:0] $end
$var wire 4 t# areg [3:0] $end
$var wire 4 u# aluOP [3:0] $end
$upscope $end
$scope module instrDec_MEM $end
$var wire 1 p sig $end
$var wire 1 $" oe $end
$var wire 4 v# instrOP [3:0] $end
$var wire 32 w# instr [31:0] $end
$var wire 1 x# he $end
$var wire 4 y# dreg [3:0] $end
$var wire 32 z# constAluu [31:0] $end
$var wire 32 {# constAlu [31:0] $end
$var wire 27 |# const27 [26:0] $end
$var wire 16 }# const16u [15:0] $end
$var wire 32 ~# const16 [31:0] $end
$var wire 4 !$ breg [3:0] $end
$var wire 3 "$ branchOP [2:0] $end
$var wire 4 #$ areg [3:0] $end
$var wire 4 $$ aluOP [3:0] $end
$upscope $end
$scope module instrDec_WB $end
$var wire 1 %$ sig $end
$var wire 1 &$ oe $end
$var wire 4 '$ instrOP [3:0] $end
$var wire 32 ($ instr [31:0] $end
$var wire 1 )$ he $end
$var wire 4 *$ dreg [3:0] $end
$var wire 32 +$ constAluu [31:0] $end
$var wire 32 ,$ constAlu [31:0] $end
$var wire 27 -$ const27 [26:0] $end
$var wire 16 .$ const16u [15:0] $end
$var wire 32 /$ const16 [31:0] $end
$var wire 4 0$ breg [3:0] $end
$var wire 3 1$ branchOP [2:0] $end
$var wire 4 2$ areg [3:0] $end
$var wire 4 3$ aluOP [3:0] $end
$upscope $end
$scope module instrMem $end
$var wire 32 4$ addr [31:0] $end
$var wire 27 5$ bus_l1i_addr [26:0] $end
$var wire 1 6$ bus_l1i_done $end
$var wire 32 7$ bus_l1i_q [31:0] $end
$var wire 1 8$ bus_l1i_ready $end
$var wire 1 9$ bus_l1i_start $end
$var wire 1 x" clear $end
$var wire 1 X clk $end
$var wire 1 Y clk100 $end
$var wire 1 c hit $end
$var wire 1 (# hold $end
$var wire 32 :$ q [31:0] $end
$var wire 1 Z reset $end
$var wire 32 ;$ bus_i_rom_q [31:0] $end
$var wire 9 <$ bus_i_rom_addr [8:0] $end
$upscope $end
$scope module intController $end
$var wire 1 X clk $end
$var wire 1 d int1 $end
$var wire 1 e int10 $end
$var wire 1 f int2 $end
$var wire 1 g int3 $end
$var wire 1 h int4 $end
$var wire 1 i int5 $end
$var wire 1 j int6 $end
$var wire 1 k int7 $end
$var wire 1 l int8 $end
$var wire 1 m int9 $end
$var wire 1 !# intDisabled $end
$var wire 1 Z reset $end
$var reg 1 =$ int10_prev $end
$var reg 1 >$ int10_triggered $end
$var reg 1 ?$ int1_prev $end
$var reg 1 @$ int1_triggered $end
$var reg 1 A$ int2_prev $end
$var reg 1 B$ int2_triggered $end
$var reg 1 C$ int3_prev $end
$var reg 1 D$ int3_triggered $end
$var reg 1 E$ int4_prev $end
$var reg 1 F$ int4_triggered $end
$var reg 1 G$ int5_prev $end
$var reg 1 H$ int5_triggered $end
$var reg 1 I$ int6_prev $end
$var reg 1 J$ int6_triggered $end
$var reg 1 K$ int7_prev $end
$var reg 1 L$ int7_triggered $end
$var reg 1 M$ int8_prev $end
$var reg 1 N$ int8_triggered $end
$var reg 1 O$ int9_prev $end
$var reg 1 P$ int9_triggered $end
$var reg 1 4" intCPU $end
$var reg 8 Q$ intID [7:0] $end
$upscope $end
$scope module regbank $end
$var wire 4 R$ addr_a [3:0] $end
$var wire 4 S$ addr_b [3:0] $end
$var wire 4 T$ addr_d [3:0] $end
$var wire 1 v" clear $end
$var wire 1 X clk $end
$var wire 32 U$ data_d [31:0] $end
$var wire 1 &# hold $end
$var wire 1 Z reset $end
$var wire 1 C" we $end
$var wire 32 V$ data_b [31:0] $end
$var wire 32 W$ data_a [31:0] $end
$var reg 32 X$ data_a_reg [31:0] $end
$var reg 32 Y$ data_b_reg [31:0] $end
$var reg 32 Z$ ramResulta [31:0] $end
$var reg 32 [$ ramResultb [31:0] $end
$var reg 1 \$ useRamResult_a $end
$var reg 1 ]$ useRamResult_b $end
$var integer 32 ^$ i [31:0] $end
$upscope $end
$scope module regr_alu_result_EX_MEM $end
$var wire 1 _$ clear $end
$var wire 1 X clk $end
$var wire 1 '# hold $end
$var wire 32 `$ in [31:0] $end
$var parameter 32 a$ N $end
$var reg 32 b$ out [31:0] $end
$upscope $end
$scope module regr_alu_result_MEM_WB $end
$var wire 1 c$ clear $end
$var wire 1 X clk $end
$var wire 1 )# hold $end
$var wire 32 d$ in [31:0] $end
$var parameter 32 e$ N $end
$var reg 32 f$ out [31:0] $end
$upscope $end
$scope module regr_cuflags_DE_EX $end
$var wire 1 g$ clear $end
$var wire 1 X clk $end
$var wire 1 &# hold $end
$var wire 14 h$ in [13:0] $end
$var parameter 32 i$ N $end
$var reg 14 j$ out [13:0] $end
$upscope $end
$scope module regr_cuflags_EX_MEM $end
$var wire 1 k$ clear $end
$var wire 1 X clk $end
$var wire 1 '# hold $end
$var wire 11 l$ in [10:0] $end
$var parameter 32 m$ N $end
$var reg 11 n$ out [10:0] $end
$upscope $end
$scope module regr_cuflags_MEM_WB $end
$var wire 1 o$ clear $end
$var wire 1 X clk $end
$var wire 1 )# hold $end
$var wire 3 p$ in [2:0] $end
$var parameter 32 q$ N $end
$var reg 3 r$ out [2:0] $end
$upscope $end
$scope module regr_instr_DE_EX $end
$var wire 1 s$ clear $end
$var wire 1 X clk $end
$var wire 1 &# hold $end
$var wire 32 t$ in [31:0] $end
$var parameter 32 u$ N $end
$var reg 32 v$ out [31:0] $end
$upscope $end
$scope module regr_instr_EX_MEM $end
$var wire 1 w$ clear $end
$var wire 1 X clk $end
$var wire 1 '# hold $end
$var wire 32 x$ in [31:0] $end
$var parameter 32 y$ N $end
$var reg 32 z$ out [31:0] $end
$upscope $end
$scope module regr_instr_MEM_WB $end
$var wire 1 {$ clear $end
$var wire 1 X clk $end
$var wire 1 )# hold $end
$var wire 32 |$ in [31:0] $end
$var parameter 32 }$ N $end
$var reg 32 ~$ out [31:0] $end
$upscope $end
$scope module regr_pc4_DE_EX $end
$var wire 1 !% clear $end
$var wire 1 X clk $end
$var wire 1 &# hold $end
$var wire 32 "% in [31:0] $end
$var parameter 32 #% N $end
$var reg 32 $% out [31:0] $end
$upscope $end
$scope module regr_pc4_EX_MEM $end
$var wire 1 %% clear $end
$var wire 1 X clk $end
$var wire 1 '# hold $end
$var wire 32 &% in [31:0] $end
$var parameter 32 '% N $end
$var reg 32 (% out [31:0] $end
$upscope $end
$scope module regr_pc4_FE_DE $end
$var wire 1 )% clear $end
$var wire 1 X clk $end
$var wire 1 (# hold $end
$var wire 32 *% in [31:0] $end
$var parameter 32 +% N $end
$var reg 32 ,% out [31:0] $end
$upscope $end
$scope module regr_pc4_MEM_WB $end
$var wire 1 -% clear $end
$var wire 1 X clk $end
$var wire 1 )# hold $end
$var wire 32 .% in [31:0] $end
$var parameter 32 /% N $end
$var reg 32 0% out [31:0] $end
$upscope $end
$scope module regr_regdata_EX_MEM $end
$var wire 1 1% clear $end
$var wire 1 X clk $end
$var wire 1 '# hold $end
$var wire 64 2% in [63:0] $end
$var parameter 32 3% N $end
$var reg 64 4% out [63:0] $end
$upscope $end
$scope module stack $end
$var wire 1 y" clear $end
$var wire 1 X clk $end
$var wire 32 5% d [31:0] $end
$var wire 1 )# hold $end
$var wire 1 y pop $end
$var wire 1 u push $end
$var wire 1 Z reset $end
$var wire 32 6% q [31:0] $end
$var reg 10 7% ptr [9:0] $end
$var reg 32 8% qreg [31:0] $end
$var reg 32 9% ramResult [31:0] $end
$var reg 1 :% useRamResult $end
$var integer 32 ;% i [31:0] $end
$upscope $end
$upscope $end
$scope module rom $end
$var wire 9 <% address [8:0] $end
$var wire 1 Y clk $end
$var wire 1 Z reset $end
$var reg 32 =% q [31:0] $end
$upscope $end
$upscope $end
$enddefinitions $end
$comment Show the parameter values. $end
$dumpall
b1000000 3%
b100000 /%
b100000 +%
b100000 '%
b100000 #%
b100000 }$
b100000 y$
b100000 u$
b11 q$
b1011 m$
b1110 i$
b100000 e$
b100000 a$
b1101 P#
b10 O#
b11 N#
b101 M#
b100 L#
b1110 K#
b1011 J#
b1010 I#
b1000 H#
b1001 G#
b1100 F#
b1111 E#
b111 D#
b110 C#
b1 B#
b0 A#
b10 =#
b100 <#
b1011 ;#
b1010 :#
b1110 9#
b110 8#
b101 7#
b0 6#
b111 5#
b1001 4#
b1000 3#
b1101 2#
b1100 1#
b1111 0#
b1 /#
b11 .#
b0 s"
b1100100 r"
1q"
b1 p"
b111 o"
b11 n"
b100 m"
b101 l"
b110 k"
b1 j"
b10 i"
b0 h"
b1000000000000 F
b100000 E
b10111101101000011011110110110101100101001011110110001001100001011100100111010000101111010001000110111101100011011101010110110101100101011011100111010001110011001011110100011001010000010001110100000100101111010001100101000001000111010000110011011000101111010101100110010101110010011010010110110001101111011001110010111101101101011001010110110101101111011100100111100100101111011100110111001001100001011011010010111001101100011010010111001101110100 D
b1100 C
$end
#0
$dumpvars
bx =%
b0 <%
b10000000000 ;%
0:%
b0 9%
b0 8%
b0 7%
b0 6%
b0 5%
b0 4%
b0 2%
01%
b0 0%
b0 .%
0-%
b0 ,%
b1 *%
0)%
b0 (%
b0 &%
0%%
b0 $%
b0 "%
0!%
b0 ~$
b0 |$
0{$
b0 z$
b0 x$
0w$
b0 v$
bx t$
0s$
b0 r$
b0 p$
0o$
b0 n$
b0 l$
0k$
b0 j$
bx h$
0g$
b0 f$
b0 d$
0c$
b0 b$
b0 `$
0_$
b10000 ^$
0]$
0\$
b0 [$
b0 Z$
b0 Y$
b0 X$
b0 W$
b0 V$
b0 U$
b0 T$
bx S$
bx R$
b0 Q$
0P$
0O$
0N$
0M$
0L$
0K$
0J$
0I$
0H$
0G$
0F$
0E$
0D$
0C$
0B$
0A$
0@$
0?$
0>$
0=$
b0 <$
bx ;$
bx :$
z9$
z8$
bz 7$
z6$
bz 5$
b0 4$
b0 3$
b0 2$
b0 1$
b0 0$
b0 /$
b0 .$
b0 -$
b0 ,$
b0 +$
b0 *$
0)$
b0 ($
b0 '$
0&$
0%$
b0 $$
b0 #$
b0 "$
b0 !$
b0 ~#
b0 }#
b0 |#
b0 {#
b0 z#
b0 y#
0x#
b0 w#
b0 v#
b0 u#
b0 t#
b0 s#
b0 r#
b0 q#
b0 p#
b0 o#
b0 n#
b0 m#
b0 l#
0k#
b0 j#
b0 i#
0h#
0g#
bx f#
bx e#
bx d#
bx c#
bx b#
bx a#
bx `#
bx _#
b0xxxxxxxxxxxxxxxx ^#
bx ]#
bx \#
bx [#
bz Z#
b0 Y#
zX#
zW#
zV#
bz U#
zT#
bz S#
bz R#
b0 Q#
bx @#
b0 ?#
bx >#
b0 -#
b0 ,#
b0 +#
0*#
0)#
0(#
0'#
0&#
bx %#
b0 $#
b0 ##
b0 "#
0!#
b0 ~"
b0 }"
b0 |"
b0 {"
0z"
0y"
0x"
0w"
0v"
b0 u"
1t"
b11111111111111111111111111111111 g"
b0 f"
b0 e"
b0 d"
b0 c"
b0 b"
b0 a"
b0 `"
x_"
0^"
bx ]"
b0 \"
b0 ["
xZ"
0Y"
0X"
bx W"
b0 V"
b0 U"
bx T"
xS"
0R"
0Q"
b0 P"
b0 O"
b0 N"
b0 M"
b0 L"
b0 K"
b0 J"
b0 I"
b0 H"
b0 G"
xF"
0E"
0D"
0C"
b0 B"
xA"
0@"
x?"
0>"
x="
0<"
0;"
x:"
bx 9"
bx 8"
b0 7"
b0 6"
b0 5"
04"
b0 3"
x2"
01"
00"
x/"
0."
0-"
x,"
0+"
0*"
0)"
x("
0'"
0&"
x%"
0$"
b0 #"
b0 ""
b1 !"
b0 ~
b0 }
b0 |
x{
0z
0y
0x
xw
0v
0u
xt
0s
0r
xq
0p
b0 o
0n
zm
0l
0k
0j
0i
0h
0g
0f
ze
0d
1c
0b
bz a
bz `
bz _
bz ^
bz ]
bz \
bz [
0Z
xY
0X
b0 W
bx V
zU
zT
zS
bz R
zQ
bz P
bz O
zN
zM
zL
bz K
zJ
bz I
bz H
bx G
zB
bz A
z@
bz ?
z>
z=
bz <
z;
bz :
bz 9
z8
z7
z6
bz 5
z4
bz 3
bz 2
z1
z0
z/
z.
bz -
z,
bz +
bz *
z)
z(
z'
bz &
z%
bz $
bz #
z"
z!
$end
#5000
bx ~"
bx ,#
bx 2%
bx }"
bx +#
bx c"
bx \"
bx t#
bx V"
bx r#
bx B"
bx `$
b1 W
b1 U"
b1 <$
b1 <%
bx K"
bx V$
bx M"
bx W$
xg#
xh#
xk#
bx I"
bx l#
bx o#
bx p#
bx q#
b0xxxxxxxxxxxxxxxx d"
b0xxxxxxxxxxxxxxxx m#
bx e"
bx n#
bx s#
bx f"
bx -#
bx u#
bx i#
xR"
x>"
x@"
xY"
xs
x<"
x."
x1"
x+"
x'"
xE"
xz
bx l$
xv
x^"
b1 |
b1 4$
z=$
zO$
b1 #"
b1 "%
b1 ,%
bx [$
bx Z$
1]$
1\$
bx 7"
bx j#
bx v$
bx x$
bx j$
b10 !"
b10 *%
b1 ##
b0 %#
1X
#15000
0X
#25000
0t"
b10 W
b10 U"
b10 <$
b10 <%
bx #$
bx !$
b10 |
b10 4$
xQ"
xX"
xr
x;"
x-"
x0"
x*"
x&"
xD"
bx p$
xy
xu
bx J"
bx Y#
bx 5%
bx L"
xp
x$"
xx#
bx H"
bx y#
bx O"
bx |#
bx }#
bx N"
bx Q#
bx P"
bx ~#
b0xxxxxxxxxxxxxxxx z#
bx {#
bx ["
bx "$
bx $$
bx v#
b0 B"
b0 `$
b11 !"
b11 *%
b10 ##
b1 %#
bx a"
bx b$
bx d$
bx n$
bx 4%
bx 6"
bx w#
bx z$
bx |$
b0 g"
b1 ""
b1 $%
b1 &%
1]$
1\$
b10 #"
b10 "%
b10 ,%
1X
#35000
0X
#45000
bx u"
bx U$
bx 2$
bx 0$
b11 W
b11 U"
b11 <$
b11 <%
b0x B"
b0x `$
x%$
x&$
x)$
bx G"
bx *$
bx T$
bx -$
bx .$
bx /$
b0xxxxxxxxxxxxxxxx +$
bx ,$
bx 1$
bx 3$
bx '$
x)"
xC"
xx
b11 |
b11 4$
b11 #"
b11 "%
b11 ,%
1]$
1\$
b1 g"
b10 ""
b10 $%
b10 &%
b1 ~
b1 (%
b1 .%
b0 a"
b0 b$
b0 d$
bx 5"
bx ($
bx ~$
bx `"
bx f$
bx r$
b100 !"
b100 *%
b11 ##
b10 %#
1X
#55000
0X
#60000
1s$
1g$
1)%
1!%
1w$
11%
1%%
1k$
1_$
1{$
1c$
1-%
1o$
1Z
#65000
b0 ~"
b0 ,#
1t"
b0 2%
b0 }"
b0 +#
b0 u"
b0 U$
b0 W
b0 U"
b0 <$
b0 <%
b0 2$
b0 0$
b0 #$
b0 !$
b0 c"
b0 b"
b0 ?#
b0 \"
b0 t#
b0 V"
b0 r#
b0 |
b0 4$
0)"
0C"
0x
0%$
0&$
0)$
b0 G"
b0 *$
b0 T$
b0 -$
b0 .$
b0 /$
b0 +$
b0 ,$
b0 1$
b0 3$
b0 '$
0Q"
0X"
0r
0;"
0-"
00"
0*"
0&"
0D"
b0 p$
0y
0u
b0 J"
b0 Y#
b0 5%
b0 N"
b0 Q#
b0 L"
0p
0$"
0x#
b0 H"
b0 y#
b0 O"
b0 |#
b0 }#
b0 P"
b0 ~#
b0 z#
b0 {#
b0 ["
b0 "$
b0 $$
b0 v#
0R"
0>"
0@"
0Y"
0s
0<"
0."
01"
0+"
0'"
0E"
0z
b0 l$
0v
0^"
b0 B"
b0 `$
0g#
0h#
0k#
b0 I"
b0 l#
b0 o#
b0 p#
b0 q#
b0 d"
b0 m#
b0 e"
b0 n#
b0 s#
b0 f"
b0 -#
b0 u#
b0 i#
b0 K"
b0 V$
b0 M"
b0 W$
b0 %#
b1 !"
b1 *%
b0 ##
b0 r$
b0 `"
b0 f$
b0 5"
b0 ($
b0 ~$
b0 n$
b0 ~
b0 (%
b0 .%
b0 4%
b0 6"
b0 w#
b0 z$
b0 |$
b0 j$
b11111111111111111111111111111111 g"
b0 ""
b0 $%
b0 &%
b0 7"
b0 j#
b0 v$
b0 x$
0]$
0\$
b0 #"
b0 "%
b0 ,%
0=$
0O$
1X
#75000
0X
#85000
1X
#95000
0X
#105000
1X
#115000
0X
#120000
0s$
0g$
0)%
0!%
0w$
01%
0%%
0k$
0_$
0{$
0c$
0-%
0o$
0Z
#125000
bx ~"
bx ,#
bx 2%
bx }"
bx +#
bx c"
bx \"
bx t#
bx V"
bx r#
bx B"
bx `$
b1 W
b1 U"
b1 <$
b1 <%
bx K"
bx V$
bx M"
bx W$
xg#
xh#
xk#
bx I"
bx l#
bx o#
bx p#
bx q#
b0xxxxxxxxxxxxxxxx d"
b0xxxxxxxxxxxxxxxx m#
bx e"
bx n#
bx s#
bx f"
bx -#
bx u#
bx i#
xR"
x>"
x@"
xY"
xs
x<"
x."
x1"
x+"
x'"
xE"
xz
bx l$
xv
x^"
b1 |
b1 4$
z=$
zO$
b1 #"
b1 "%
b1 ,%
1]$
1\$
bx 7"
bx j#
bx v$
bx x$
bx j$
b10 !"
b10 *%
b1 ##
1X
#135000
0X
